A,B,C,D,E,F,G,H,I
项目,2017Q1,2017Q2,2017Q3,2017Q4,2018Q1,2018Q2,2018Q3,2018Q4
销售额（千元）,41460665,5080900,5692400,8513858,7696566,10378800,10804800,14936734
同比增长,,,,,85.0%,104.3%,89.8%,75.4%
环比增长,,22.1%,12.0%,49.6%,-9.6%,34.8%,4.1%,38.2%
总收入占比,22.5%,18.9%,16.7%,24.2%,22.4%,22.9%,21.2%,33.6%